id_product,id_opportunity,name,demand
170,3,acetaminophen/500 MG,505
633,5,acetaminophen/500 MG,1946
299,28,acetaminophen/500 MG,1063
122,120,acetaminophen/500 MG,1046
433,135,acetaminophen/500 MG,157
925,139,acetaminophen/500 MG,590
385,148,acetaminophen/500 MG,1040
539,151,acetaminophen/500 MG,1395
707,156,acetaminophen/500 MG,1359
242,169,acetaminophen/500 MG,999
255,218,acetaminophen/500 MG,438
286,232,acetaminophen/500 MG,796
556,233,acetaminophen/500 MG,1276
78,236,acetaminophen/500 MG,914
194,248,acetaminophen/500 MG,1455
59,262,acetaminophen/500 MG,1373
600,275,acetaminophen/500 MG,622
785,293,acetaminophen/500 MG,1261
130,309,acetaminophen/500 MG,1180
635,313,acetaminophen/500 MG,1515
716,319,acetaminophen/500 MG,827
107,322,acetaminophen/500 MG,885
955,359,acetaminophen/500 MG,988
598,362,acetaminophen/500 MG,1110
802,366,acetaminophen/500 MG,1183
873,437,acetaminophen/500 MG,845
569,520,acetaminophen/500 MG,1302
656,527,acetaminophen/500 MG,1264
322,534,acetaminophen/500 MG,1497
905,540,acetaminophen/500 MG,1106
151,571,acetaminophen/500 MG,975
515,641,acetaminophen,329
583,691,acetaminophen,1535
585,740,acetaminophen,890
661,748,acetaminophen,1056
830,754,acetaminophen,1107
604,765,acetaminophen,1355
119,805,acetaminophen,256
554,807,acetaminophen,698
121,819,acetaminophen,1106
507,832,acetaminophen,1071
825,838,acetaminophen,1141
47,873,acetaminophen,1018
185,874,acetaminophen,227
444,926,acetaminophen,804
699,928,acetaminophen,968
210,942,acetaminophen,1223
45,950,acetaminophen,1762
146,952,acetaminophen,1338
967,974,acetaminophen,334
34,984,acetaminophen,597
546,996,acetaminophen,399
911,145,phenylephrine,666
157,146,phenylephrine,1066
7,148,phenylephrine,1079
84,293,phenylephrine,896
46,309,phenylephrine,732
232,313,phenylephrine,1103
252,366,phenylephrine,1164
3,520,phenylephrine,932
133,534,phenylephrine,974
330,540,phenylephrine,856
315,614,phenylephrine,1475
687,641,phenylephrine,448
495,657,phenylephrine,1044
811,710,phenylephrine,1162
834,736,phenylephrines,1337
916,776,phenylephrines,1042
102,805,phenylephrines,726
624,820,phenylephrines,723
702,832,phenylephrines,590
998,862,phenylephrines,1167
177,903,phenylephrines,1534
366,912,phenylephrines,545
623,952,phenylephrines,838
906,979,phenylephrines,1404
282,15,Octinoxate,773
525,101,Octinoxate,248
798,119,Octinoxate,1682
725,178,Octinoxate,1215
492,255,Octinoxate,1143
408,311,Octinoxate,1191
241,318,Octinoxate,819
329,320,Octinoxate,846
829,358,Octinoxate,1242
728,385,Octinoxate,956
625,398,Octinoxate,909
884,407,Octinoxate,1153
990,422,Octinoxate,1878
431,424,Octinoxate,746
816,447,Octinoxate,1183
404,487,Octinoxate,133
572,500,Octinoxate,1005
571,508,Octinoxate,600
813,513,Octinoxate,657
842,518,Octinoxate,744
882,577,Octinoxate,736
18,582,Octinoxate,2008
153,583,Octinoxate,796
528,584,Octinoxate,1492
891,596,Octinoxate,1901
112,610,Octinoxate,640
714,631,Octinoxate,849
723,637,Octinoxate,870
214,656,Octinoxate,1259
737,669,Octinoxate,677
423,704,Octinoxate,1444
844,738,Octinoxate,1426
617,763,Octinoxate,157
243,768,Octinoxate,1402
276,799,Octinoxate,1048
792,800,Octinoxate,936
343,818,Octinoxate,507
684,824,Octinoxate,930
561,877,Octinoxate,703
225,886,Octinoxate,1327
789,910,Octinoxate,1325
251,913,Octinoxate,310
533,937,Octinoxate,1281
206,968,Octinoxate,1747
869,972,Octinoxate,1210
450,978,Octinoxate,1052
363,998,Octinoxate,1946
380,77,dextromethorphan HBR,941
200,120,dextromethorphan HBR,780
266,145,dextromethorphan HBR,961
729,233,dextromethorphan HBR,1710
108,309,dextromethorphan HBR,415
358,313,dextromethorphan HBR,1349
499,359,dextromethorphan HBR,1303
971,366,dextromethorphan HBR,1104
296,429,dextromethorphan HBR,1373
145,467,dextromethorphan HBR,1299
482,534,dextromethorphan HBR,332
166,571,dextromethorphan HBR,600
425,620,dextromethorphan HBR,800
284,641,dextromethorphan HBR,862
745,691,dextromethorphan HBR,513
767,740,dextromethorphan HBR,538
161,805,dextromethorphan HBR,505
735,832,dextromethorphan HBR,595
180,874,dextromethorphan HBR,648
267,912,dextromethorphan HBR,1373
597,952,dextromethorphan HBR,954
226,979,dextromethorphan HBR,1389
26,27,Pioglitazone,981
193,129,Pioglitazone HCL,429
216,160,HYDROCHLOROTHIAZIDE,1229
281,238,HYDROCHLOROTHIAZIDE,885
567,246,HYDROCHLOROTHIAZIDE,1145
631,402,HYDROCHLOROTHIAZIDE,1299
115,410,HYDROCHLOROTHIAZIDE,-81
630,473,HYDROCHLOROTHIAZIDE,1207
524,535,HYDROCHLOROTHIAZIDE,770
432,608,HYDROCHLOROTHIAZIDE,823
75,781,HYDROCHLOROTHIAZIDE,774
156,846,HYDROCHLOROTHIAZIDE,1636
386,948,HYDROCHLOROTHIAZIDE,1449
261,949,HYDROCHLOROTHIAZIDE,469
781,290,alcohol ethyl,561
99,299,alcohol ethyl,1235
292,341,alcohol ethyl,2190
676,521,alcohol ethyl,1262
717,578,alcohol ethyl,891
422,989,alcohol ethyl,1051
68,43,Minoxidil,828
954,152,Minoxidil,614
594,165,Minoxidil,681
159,203,Amoxicillin,1088
787,498,amoxicillin and clavulanate potassium,1327
396,711,Amoxicillin and Clavulanate Potassium,1167
715,811,Amoxicillin and Clavulanate Potassium,612
465,966,Amoxicillin and Clavulanate Potassium,691
820,25,Naproxen,906
871,89,Naproxen,701
949,132,NAPROXEN,981
309,876,Naproxen,362
368,55,Isopropyl Alcohol,1167
147,224,Isopropyl Alcohol,451
189,760,Isopropyl Alcohol,879
738,864,Isopropyl Alcohol,688
234,31,Octisalate,341
175,178,Octisalate,1472
217,192,Octisalate,1113
435,255,Octisalate,494
58,358,Octisalate,1267
796,385,Octisalate,815
897,387,Octisalate,576
227,407,Octisalate,1308
349,424,Octisalate,1463
595,447,Octisalate,1268
899,487,Octisalate,486
253,500,Octisalate,1193
118,513,Octisalate,1771
886,560,Octisalate,795
945,610,Octisalate,594
213,669,Octisalate,1855
616,673,Octisalate,635
982,695,Octisalate,577
636,753,Octisalate,456
269,768,Octisalate,1038
579,799,Octisalate,807
966,800,Octisalate,1279
70,877,Octisalate,705
469,878,Octisalate,1420
57,890,Octisalate,826
367,913,Octisalate,1457
143,972,Octisalate,790
626,978,Octisalate,579
62,105,PRAMOXINE HCL/BENZYL ALCOHOL,1197
827,124,ALCOHOL,895
575,147,ALCOHOL,902
182,239,ALCOHOL,1233
64,269,ALCOHOL,367
174,304,Alcohol Prep Pad,1590
399,330,Alcohol,1328
472,369,Alcohol,841
580,376,ALCOHOL,1107
666,413,alcohol,1085
732,435,ALCOHOL,283
801,445,Alcohol,1269
836,538,Alcohol,1122
126,539,Alcohol,418
407,543,"BENZYL ALCOHOL, LIDOCAINE HYDROCHLORIDE",1000
76,687,ALCOHOL,904
841,882,Alcohol,595
295,953,ALCOHOL,1165
314,24,Oxygen,1307
451,194,Oxygen,1491
553,482,Oxygen,1110
165,494,Oxygen,329
548,816,OXYGEN,868
577,836,Oxygen,819
